200922_Assignment-3.utf8
…
##                Df          Sum Sq       Mean Sq F value              Pr(>F)    
## SCHL_label     24  37057050106220 1544043754426   391.3 <0.0000000000000002 ***
## Residuals   51385 202758881627178    3945876844                                
## ---
## Signif. codes:  0 '***' 0.001 '**' 0.01 '*' 0.05 '.' 0.1 ' ' 1

Running a Tukeys Honestly Significant Test, since the p value is less than 0.05.

differences <- TukeyHSD(anova_edu_income)

as_tibble(cbind(pair = row.names(differences$SCHL_label),
                differences$SCHL_label))

## # A tibble: 300 x 5
##    pair                            diff       lwr       upr       `p adj`       
##    <chr>                           <chr>      <chr>     <chr>     <chr>         
##  1 12th grade - no diploma-1 or m~ -9829.973~ -15748.5~ -3911.44~ 0.00000036867~
##  2 Associate's degree-1 or more y~ 6764.7841~ 2047.703~ 11481.86~ 0.00004502339~
##  3 Bachelor's degree-1 or more ye~ 24460.140~ 20745.90~ 28174.37~ 0             
##  4 Doctorate degree-1 or more yea~ 80172.355~ 72792.98~ 87551.72~ 0             
##  5 GED or alternative credential-~ -4160.839~ -11728.4~ 3406.800~ 0.95178101012~
##  6 Grade 1-1 or more years of col~ -24033.83~ -46983.8~ -1083.84~ 0.02742861504~
##  7 Grade 10-1 or more years of co~ -15114.37~ -24651.2~ -5577.51~ 0.00000199823~
##  8 Grade 11-1 or more years of co~ -13347.97~ -22438.0~ -4257.89~ 0.00002278824~
##  9 Grade 2-1 or more years of col~ -21724.25~ -37437.8~ -6010.69~ 0.00012140371~
## 10 Grade 3-1 or more years of col~ -21521.25~ -32455.1~ -10587.4~ 0.00000000018~
## # ... with 290 more rows
…
summary(anova_edu_ped_nat)

##                Df  Sum Sq Mean Sq F value              Pr(>F)    
## SCHL_label     24  341709   14238   161.5 <0.0000000000000002 ***
## Residuals   51385 4530036      88                                
## ---
## Signif. codes:  0 '***' 0.001 '**' 0.01 '*' 0.05 '.' 0.1 ' ' 1

differences <- TukeyHSD(anova_edu_ped_nat)

as_tibble(cbind(pair = row.names(differences$SCHL_label),
                differences$SCHL_label))

## # A tibble: 300 x 5
##    pair                           diff       lwr        upr       `p adj`       
##    <chr>                          <chr>      <chr>      <chr>     <chr>         
##  1 12th grade - no diploma-1 or ~ 1.7966532~ 0.9119961~ 2.681310~ 0.00000000003~
##  2 Associate's degree-1 or more ~ -0.834590~ -1.539663~ -0.12951~ 0.00379938114~
##  3 Bachelor's degree-1 or more y~ -2.330979~ -2.886154~ -1.77580~ 0             
##  4 Doctorate degree-1 or more ye~ -0.779842~ -1.882853~ 0.323168~ 0.62885166983~
##  5 GED or alternative credential~ 1.6131390~ 0.4819860~ 2.744291~ 0.00005264562~
##  6 Grade 1-1 or more years of co~ 5.6558254~ 2.2254362~ 9.086214~ 0.00000048538~
##  7 Grade 10-1 or more years of c~ 1.9709644~ 0.5454678~ 3.396461~ 0.00012109517~
##  8 Grade 11-1 or more years of c~ 2.4375447~ 1.0788296~ 3.796259~ 0.00000001586~
##  9 Grade 2-1 or more years of co~ 8.5352636~ 6.1865203~ 10.88400~ 0             
## 10 Grade 3-1 or more years of co~ 8.5842855~ 6.9499772~ 10.21859~ 0             
## # ... with 290 more rows
…
##                Df          Sum Sq       Mean Sq F value              Pr(>F)    
## ESR_label       6  48331230840802 8055205140134    2162 <0.0000000000000002 ***
## Residuals   51403 191484700892626    3725165864                                
## ---
## Signif. codes:  0 '***' 0.001 '**' 0.01 '*' 0.05 '.' 0.1 ' ' 1

Running a Tukeys Honestly Significant Test.

differences <- TukeyHSD(anova_work_income)

as_tibble(cbind(pair = row.names(differences$ESR_label),
                differences$ESR_label))

## # A tibble: 21 x 5
##    pair                            diff       lwr       upr       `p adj`       
##    <chr>                           <chr>      <chr>     <chr>     <chr>         
##  1 Armed forces, with a job but n~ -2917.475~ -183737.~ 177902.1~ 0.99999999901~
##  2 Civilian employed, at work-Arm~ 17701.031~ -60.9511~ 35463.01~ 0.05147458502~
##  3 Civilian employed, with a job ~ -4377.298~ -23156.4~ 14401.88~ 0.99333262964~
##  4 N/A (less than 16 years old)-A~ -46918.27~ -66727.5~ -27108.9~ 0.00000000006~
##  5 Not in labor force-Armed force~ -45523.34~ -63300.6~ -27746.0~ 0.00000000000~
##  6 Unemployed-Armed forces, at wo~ -33209.01~ -51721.5~ -14696.5~ 0.00000256313~
##  7 Civilian employed, at work-Arm~ 20618.506~ -159332.~ 200569.7~ 0.99988212466~
##  8 Civilian employed, with a job ~ -1459.822~ -181514.~ 178594.6~ 0.99999999998~
##  9 N/A (less than 16 years old)-A~ -44000.80~ -224165.~ 136164.0~ 0.99142855486~
## 10 Not in labor force-Armed force~ -42605.86~ -222558.~ 137346.8~ 0.99274570511~
## # ... with 11 more rows
…
##                Df  Sum Sq Mean Sq F value              Pr(>F)    
## ESR_label       6   67323   11221     120 <0.0000000000000002 ***
## Residuals   51403 4804421      93                                
## ---
## Signif. codes:  0 '***' 0.001 '**' 0.01 '*' 0.05 '.' 0.1 ' ' 1

Running a Tukeys Honestly Significant Test.

differences <- TukeyHSD(anova_work_nat)

as_tibble(cbind(pair = row.names(differences$ESR_label),
                differences$ESR_label))

## # A tibble: 21 x 5
##    pair                            diff       lwr       upr       `p adj`       
##    <chr>                           <chr>      <chr>     <chr>     <chr>         
##  1 Armed forces, with a job but n~ 2.0291262~ -26.6125~ 30.67083~ 0.99999310959~
##  2 Civilian employed, at work-Arm~ 5.1344990~ 2.321011~ 7.947986~ 0.00000154871~
##  3 Civilian employed, with a job ~ 5.2182515~ 2.243639~ 8.192863~ 0.00000481136~
##  4 N/A (less than 16 years old)-A~ -2.513042~ -5.65082~ 0.624742~ 0.21521961520~
##  5 Not in labor force-Armed force~ 6.8569988~ 4.041087~ 9.672910~ 0.00000000001~
##  6 Unemployed-Armed forces, at wo~ 5.3108409~ 2.378474~ 8.243207~ 0.00000194037~
##  7 Civilian employed, at work-Arm~ 3.1053728~ -25.3987~ 31.60954~ 0.99991228478~
##  8 Civilian employed, with a job ~ 3.1891252~ -25.3313~ 31.70964~ 0.99989781235~
##  9 N/A (less than 16 years old)-A~ -4.542168~ -33.0801~ 23.99583~ 0.99920829971~
## 10 Not in labor force-Armed force~ 4.8278726~ -23.6765~ 33.33227~ 0.99887131563~
## # ... with 11 more rows
…
